Dataset;HEU 111;Z 10;%;HEU 112;Z 11;%
../dataset/temporal/NASA/APCP_0005.txt;0.04;0.03;75.00;0.04;0.08;200.00
../dataset/temporal/NASA/APCP_0010.txt;0.07;0.04;57.14;0.07;0.11;157.14
../dataset/temporal/NASA/APCP_0015.txt;0.10;0.04;40.00;0.10;0.14;140.00
../dataset/temporal/NASA/APCP_0050.txt;0.29;0.10;34.48;0.29;0.38;131.03
../dataset/temporal/NASA/APCP_0100.txt;0.77;0.22;28.57;0.77;0.91;118.18
../dataset/temporal/NASA/APCP_0500.txt;7.60;1.59;20.92;7.03;8.37;119.06
../dataset/temporal/NASA/APCP_1000.txt;16.44;3.37;20.50;15.09;17.63;116.83
../dataset/temporal/NASA/APCP_1500.txt;26.74;5.39;20.16;24.46;28.37;115.99
../dataset/temporal/NASA/APCP_NLDAS_FORA0125_H.txt;47.97;9.66;20.14;43.74;49.73;113.69
../dataset/temporal/NASA/CAPE_NLDAS_FORA0125_H.txt;115.24;14.72;12.77;103.89;102.00;98.18
../dataset/temporal/NASA/CONVfrac_NLDAS_FORA0125_H.txt;12.79;2.58;20.17;13.70;12.96;94.60
../dataset/temporal/NASA/DLWRF_NLDAS_FORA0125_H.txt;234.20;49.34;21.07;314.16;365.16;116.23
../dataset/temporal/NASA/DSWRF_NLDAS_FORA0125_H.txt;225.43;37.72;16.73;185.42;276.88;149.33
../dataset/temporal/NASA/PEVAP_NLDAS_FORA0125_H.txt;29.64;17.34;58.50;30.44;64.71;212.58
../dataset/temporal/NASA/PRES_NLDAS_FORA0125_H.txt;679.89;68.47;10.07;580.28;539.67;93.00
../dataset/temporal/NASA/SPFH_NLDAS_FORA0125_H.txt;5.30;0.60;11.32;5.35;1.13;21.12
../dataset/temporal/NASA/TMP_NLDAS_FORA0125_H.txt;366.63;41.48;11.31;288.77;288.93;100.06
../dataset/temporal/NASA/UGRD_NLDAS_FORA0125_H.txt;332.69;38.10;11.45;266.28;258.53;97.09
../dataset/temporal/NASA/VGRD_NLDAS_FORA0125_H.txt;332.13;38.16;11.49;265.77;258.92;97.42
../dataset/temporal/PRES/PRES_01.txt;553.74;57.89;10.45;481.61;443.36;92.06
../dataset/temporal/PRES/PRES_001.txt;420.93;47.39;11.26;380.41;347.75;91.41
../dataset/temporal/PRES/PRES_0001.txt;275.41;35.95;13.05;278.69;251.86;90.37
../dataset/temporal/PRES/PRES_00001.txt;137.86;22.09;16.02;173.03;139.12;80.40
../dataset/temporal/PRES/PRES_000001.txt;56.41;11.07;19.62;66.21;30.03;45.36
../dataset/temporal/PRES/PRES_0000001.txt;15.71;3.29;20.94;16.79;5.74;34.19
../dataset/temporal/m1lsm/m1lsmCH0.txt;280.54;28.44;10.14;222.32;222.50;100.08
../dataset/temporal/m1lsm/m1lsmCH1.txt;244.73;22.80;9.32;194.91;195.57;100.34
../dataset/temporal/m1lsm/m1lsmCH2.txt;241.55;23.95;9.92;186.89;194.49;104.07
../dataset/temporal/m1lsm/m1lsmCH3.txt;258.39;24.27;9.39;210.63;209.73;99.57
../dataset/temporal/m1lsm/m1lsmCH4.txt;284.29;29.54;10.39;224.85;223.92;99.59
../dataset/temporal/m1lsm_div/m1lsmCH0DIV10.txt;185.80;18.45;9.93;145.70;147.49;101.23
../dataset/temporal/m1lsm_div/m1lsmCH1DIV10.txt;145.09;14.02;9.66;119.76;120.70;100.78
../dataset/temporal/m1lsm_div/m1lsmCH2DIV10.txt;139.53;13.70;9.82;112.78;112.61;99.85
../dataset/temporal/m1lsm_div/m1lsmCH3DIV10.txt;162.30;15.72;9.69;136.94;134.01;97.86
../dataset/temporal/m1lsm_div/m1lsmCH4DIV10.txt;187.62;19.26;10.27;149.76;144.14;96.25
../dataset/temporal/m1lsm_div/m1lsmCH0DIV100.txt;86.67;9.72;11.21;75.41;74.85;99.26
../dataset/temporal/m1lsm_div/m1lsmCH1DIV100.txt;36.59;6.91;18.88;31.83;25.47;80.02
../dataset/temporal/m1lsm_div/m1lsmCH2DIV100.txt;64.51;9.04;14.01;52.90;42.82;80.95
../dataset/temporal/m1lsm_div/m1lsmCH3DIV100.txt;60.95;9.57;15.70;54.41;40.69;74.78
../dataset/temporal/m1lsm_div/m1lsmCH4DIV100.txt;85.81;10.66;12.42;79.78;74.23;93.04
../dataset/temporal/zipf/zipf_at_2_0.txt;807.71;123.47;15.29;1,171.81;1,087.15;92.78
../dataset/temporal/zipf/zipf_at_2_1.txt;807.71;123.47;15.29;1,171.81;1,087.15;92.78
../dataset/temporal/zipf/zipf_at_2_2.txt;807.71;123.47;15.29;1,171.81;1,087.15;92.78
../dataset/temporal/zipf/zipf_at_2_3.txt;807.71;123.47;15.29;1,171.81;1,087.15;92.78
../dataset/temporal/zipf/zipf_at_2_4.txt;807.71;123.47;15.29;1,171.81;1,087.15;92.78
../dataset/temporal/zipf/zipf_at_5_0.txt;243.90;45.41;18.62;313.10;211.42;67.52
../dataset/temporal/zipf/zipf_at_5_1.txt;243.90;45.41;18.62;313.10;211.42;67.52
../dataset/temporal/zipf/zipf_at_5_2.txt;243.90;45.41;18.62;313.10;211.42;67.52
../dataset/temporal/zipf/zipf_at_5_3.txt;243.90;45.41;18.62;313.10;211.42;67.52
../dataset/temporal/zipf/zipf_at_5_4.txt;243.90;45.41;18.62;313.10;211.42;67.52
../dataset/temporal/zipf/zipf_at_10_0.txt;90.27;26.85;29.74;73.70;59.55;80.80
../dataset/temporal/zipf/zipf_at_10_1.txt;90.27;26.85;29.74;73.70;59.55;80.80
../dataset/temporal/zipf/zipf_at_10_2.txt;90.27;26.85;29.74;73.70;59.55;80.80
../dataset/temporal/zipf/zipf_at_10_3.txt;90.27;26.85;29.74;73.70;59.55;80.80
../dataset/temporal/zipf/zipf_at_10_4.txt;90.27;26.85;29.74;73.70;59.55;80.80
../dataset/temporal/zipf/zipf_ae_2_0.txt;198.77;43.15;21.71;167.27;99.16;59.28
../dataset/temporal/zipf/zipf_ae_2_1.txt;198.77;43.15;21.71;167.27;99.16;59.28
../dataset/temporal/zipf/zipf_ae_2_2.txt;198.77;43.15;21.71;167.27;99.16;59.28
../dataset/temporal/zipf/zipf_ae_2_3.txt;198.77;43.15;21.71;167.27;99.16;59.28
../dataset/temporal/zipf/zipf_ae_2_4.txt;198.77;43.15;21.71;167.27;99.16;59.28
../dataset/temporal/zipf/zipf_ae_5_0.txt;94.97;27.35;28.80;78.30;60.92;77.80
../dataset/temporal/zipf/zipf_ae_5_1.txt;94.97;27.35;28.80;78.30;60.92;77.80
../dataset/temporal/zipf/zipf_ae_5_2.txt;94.97;27.35;28.80;78.30;60.92;77.80
../dataset/temporal/zipf/zipf_ae_5_3.txt;94.97;27.35;28.80;78.30;60.92;77.80
../dataset/temporal/zipf/zipf_ae_5_4.txt;94.97;27.35;28.80;78.30;60.92;77.80
../dataset/temporal/zipf/zipf_r_256_0.txt;23.78;6.65;27.96;19.69;14.90;75.67
../dataset/temporal/zipf/zipf_r_256_1.txt;23.78;6.65;27.96;19.69;14.90;75.67
../dataset/temporal/zipf/zipf_r_256_2.txt;23.78;6.65;27.96;19.69;14.90;75.67
../dataset/temporal/zipf/zipf_r_256_3.txt;23.78;6.65;27.96;19.69;14.90;75.67
../dataset/temporal/zipf/zipf_r_256_4.txt;23.78;6.65;27.96;19.69;14.90;75.67
../dataset/temporal/zipf/zipf_tr_128_0.txt;2.01;0.60;29.85;1.91;0.89;46.60
../dataset/temporal/zipf/zipf_tr_128_1.txt;2.01;0.60;29.85;1.91;0.89;46.60
../dataset/temporal/zipf/zipf_tr_128_2.txt;2.01;0.60;29.85;1.91;0.89;46.60
../dataset/temporal/zipf/zipf_tr_128_3.txt;2.01;0.60;29.85;1.91;0.89;46.60
../dataset/temporal/zipf/zipf_tr_128_4.txt;2.01;0.60;29.85;1.91;0.89;46.60
../dataset/temporal/zipf/zipf_tr_256_0.txt;5.35;1.68;31.40;5.39;2.73;50.65
../dataset/temporal/zipf/zipf_tr_256_1.txt;5.35;1.68;31.40;5.39;2.73;50.65
../dataset/temporal/zipf/zipf_tr_256_2.txt;5.35;1.68;31.40;5.39;2.73;50.65
../dataset/temporal/zipf/zipf_tr_256_3.txt;5.35;1.68;31.40;5.39;2.73;50.65
../dataset/temporal/zipf/zipf_tr_256_4.txt;5.35;1.68;31.40;5.39;2.73;50.65
../dataset/temporal/zipf/zipf_tr_512_0.txt;14.43;4.89;33.89;13.70;8.70;63.50
../dataset/temporal/zipf/zipf_tr_512_1.txt;14.43;4.89;33.89;13.70;8.70;63.50
../dataset/temporal/zipf/zipf_tr_512_2.txt;14.43;4.89;33.89;13.70;8.70;63.50
../dataset/temporal/zipf/zipf_tr_512_3.txt;14.43;4.89;33.89;13.70;8.70;63.50
../dataset/temporal/zipf/zipf_tr_512_4.txt;14.43;4.89;33.89;13.70;8.70;63.50
../dataset/temporal/zipf/zipf_tr_1024_0.txt;37.27;11.98;32.14;33.08;24.06;72.73
../dataset/temporal/zipf/zipf_tr_1024_1.txt;37.27;11.98;32.14;33.08;24.06;72.73
../dataset/temporal/zipf/zipf_tr_1024_2.txt;37.27;11.98;32.14;33.08;24.06;72.73
../dataset/temporal/zipf/zipf_tr_1024_3.txt;37.27;11.98;32.14;33.08;24.06;72.73
../dataset/temporal/zipf/zipf_tr_1024_4.txt;37.27;11.98;32.14;33.08;24.06;72.73
